code/test_run_dir/make_a_vcd/make_a_vcd.vcd
$date
2020-03-26T23:46+0000
$end
$version
0.2
$end
$comment

$end
$timescale 1ns  $end
$scope module GCD $end
 $var wire 16 ! io_outputGCD $end
 $var wire 16 " _GEN_2 $end
 $var wire 1 # _T $end
 $var wire 1 $ io_outputValid $end
 $var wire 16 % _GEN_1 $end
 $var wire 16 & y $end
 $var wire 16 ' io_value2 $end
 $var wire 1 ( clock $end
 $var wire 16 ) x $end
 $var wire 16 * _GEN_0 $end
 $var wire 1 + reset $end
 $var wire 16 , io_value1 $end
 $var wire 16 - _GEN_3 $end
 $var wire 1 . io_loadingValues $end
$upscope $end
$enddefinitions $end
$dumpvars
b0000000000000000 %
b0000000000000000 ,
0.
b0000000000000000 -
b0000000000000000 &
0(
b0000000000000000 '
0#
b0000000000000000 )
b0000000000000000 !
0+
b0000000000000000 "
0$
b0000000000000000 *
$end
#0
1$
1+
#1
1(
#6
0(
#11
1(
#16
0(
#21
1(
#26
0(
#31
1(
#36
0(
#41
1(
#46
b0000000000000001 -
b0000000000000001 "
1.
b0000000000000001 '
0+
0(
b0000000000000001 ,
#51
b0000000000000001 !
b0000000000000001 &
b0000000000000001 *
0$
1(
b0000000000000001 )
#56
b0000000000000000 -
0.
0(
#61
b0000000000000000 &
1#
1$
1(
#66
b0000000000001000 -
1.
b0000000000001000 '
0(
#71
b0000000000000111 %
b0000000000001000 &
0#
0$
1(
#76
b0000000000000111 -
0.
0(
#81
b0000000000000110 -
b0000000000000110 %
b0000000000000111 &
1(
#86
0(
#91
b0000000000000101 -
b0000000000000101 %
b0000000000000110 &
1(
#96
0(
#101
b0000000000000100 -
b0000000000000100 %
b0000000000000101 &
1(
#106
0(
#111
b0000000000000011 -
b0000000000000011 %
b0000000000000100 &
1(
#116
0(
#121
b0000000000000010 -
b0000000000000010 %
b0000000000000011 &
1(
#126
0(
#131
b0000000000000001 -
b0000000000000001 %
b0000000000000010 &
1(
#136
0(
#141
b0000000000000000 -
b0000000000000000 %
b0000000000000001 &
1(
#146
0(
#151
b0000000000000000 &
1#
1$
1(
#156
b0000000000001111 -
1.
b0000000000001111 '
0(
#161
b0000000000001110 %
b0000000000001111 &
0#
0$
1(
#166
b0000000000001110 -
0.
0(
#171
b0000000000001101 -
b0000000000001101 %
b0000000000001110 &
1(
#176
0(
#181
b0000000000001100 -
b0000000000001100 %
b0000000000001101 &
1(
#186
0(
#191
b0000000000001011 -
b0000000000001011 %
b0000000000001100 &
1(
#196
0(
#201
b0000000000001010 -
b0000000000001010 %
b0000000000001011 &
1(
#206
0(
#211
b0000000000001001 -
b0000000000001001 %
b0000000000001010 &
1(
#216
0(
#221
b0000000000001000 -
b0000000000001000 %
b0000000000001001 &
1(
#226
0(
#231
b0000000000000111 -
b0000000000000111 %
b0000000000001000 &
1(
#236
0(
#241
b0000000000000110 -
b0000000000000110 %
b0000000000000111 &
1(
#246
0(
#251
b0000000000000101 -
b0000000000000101 %
b0000000000000110 &
1(
#256
0(
#261
b0000000000000100 -
b0000000000000100 %
b0000000000000101 &
1(
#266
0(
#271
b0000000000000011 -
b0000000000000011 %
b0000000000000100 &
1(
#276
0(
#281
b0000000000000010 -
b0000000000000010 %
b0000000000000011 &
1(
#286
0(
#291
b0000000000000001 -
b0000000000000001 %
b0000000000000010 &
1(
#296
0(
#301
b0000000000000000 -
b0000000000000000 %
b0000000000000001 &
1(
#306
0(
#311
b0000000000000000 &
1#
1$
1(
#316
b0000000000010110 -
1.
b0000000000010110 '
0(
#321
b0000000000010101 %
b0000000000010110 &
0#
0$
1(
#326
b0000000000010101 -
0.
0(
#331
b0000000000010100 -
b0000000000010100 %
b0000000000010101 &
1(
#336
0(
#341
b0000000000010011 -
b0000000000010011 %
b0000000000010100 &
1(
#346
0(
#351
b0000000000010010 -
b0000000000010010 %
b0000000000010011 &
1(
#356
0(
#361
b0000000000010001 -
b0000000000010001 %
b0000000000010010 &
1(
#366
0(
#371
b0000000000010000 -
b0000000000010000 %
b0000000000010001 &
1(
#376
0(
#381
b0000000000001111 -
b0000000000001111 %
b0000000000010000 &
1(
#386
0(
#391
b0000000000001110 -
b0000000000001110 %
b0000000000001111 &
1(
#396
0(
#401
b0000000000001101 -
b0000000000001101 %
b0000000000001110 &
1(
#406
0(
#411
b0000000000001100 -
b0000000000001100 %
b0000000000001101 &
1(
#416
0(
#421
b0000000000001011 -
b0000000000001011 %
b0000000000001100 &
1(
#426
0(
#431
b0000000000001010 -
b0000000000001010 %
b0000000000001011 &
1(
#436
0(
#441
b0000000000001001 -
b0000000000001001 %
b0000000000001010 &
1(
#446
0(
#451
b0000000000001000 -
b0000000000001000 %
b0000000000001001 &
1(
#456
0(
#461
b0000000000000111 -
b0000000000000111 %
b0000000000001000 &
1(
#466
0(
#471
b0000000000000110 -
b0000000000000110 %
b0000000000000111 &
1(
#476
0(
#481
b0000000000000101 -
b0000000000000101 %
b0000000000000110 &
1(
#486
0(
#491
b0000000000000100 -
b0000000000000100 %
b0000000000000101 &
1(
#496
0(
#501
b0000000000000011 -
b0000000000000011 %
b0000000000000100 &
1(
#506
0(
#511
b0000000000000010 -
b0000000000000010 %
b0000000000000011 &
1(
#516
0(
#521
b0000000000000001 -
b0000000000000001 %
b0000000000000010 &
1(
#526
0(
#531
b0000000000000000 -
b0000000000000000 %
b0000000000000001 &
1(
#536
0(
#541
b0000000000000000 &
1#
1$
1(
#546
b0000000000011101 -
1.
b0000000000011101 '
0(
#551
b0000000000011100 %
b0000000000011101 &
0#
0$
1(
#556
b0000000000011100 -
0.
0(
#561
b0000000000011011 -
b0000000000011011 %
b0000000000011100 &
1(
#566
0(
#571
b0000000000011010 -
b0000000000011010 %
b0000000000011011 &
1(
#576
0(
#581
b0000000000011001 -
b0000000000011001 %
b0000000000011010 &
1(
#586
0(
#591
b0000000000011000 -
b0000000000011000 %
b0000000000011001 &
1(
#596
0(
#601
b0000000000010111 -
b0000000000010111 %
b0000000000011000 &
1(
#606
0(
#611
b0000000000010110 -
b0000000000010110 %
b0000000000010111 &
1(
#616
0(
#621
b0000000000010101 -
b0000000000010101 %
b0000000000010110 &
1(
#626
0(
#631
b0000000000010100 -
b0000000000010100 %
b0000000000010101 &
1(
#636
0(
#641
b0000000000010011 -
b0000000000010011 %
b0000000000010100 &
1(
#646
0(
#651
b0000000000010010 -
b0000000000010010 %
b0000000000010011 &
1(
#656
0(
#661
b0000000000010001 -
b0000000000010001 %
b0000000000010010 &
1(
#666
0(
#671
b0000000000010000 -
b0000000000010000 %
b0000000000010001 &
1(
#676
0(
#681
b0000000000001111 -
b0000000000001111 %
b0000000000010000 &
1(
#686
0(
#691
b0000000000001110 -
b0000000000001110 %
b0000000000001111 &
1(
#696
0(
#701
b0000000000001101 -
b0000000000001101 %
b0000000000001110 &
1(
#706
0(
#711
b0000000000001100 -
b0000000000001100 %
b0000000000001101 &
1(
#716
0(
#721
b0000000000001011 -
b0000000000001011 %
b0000000000001100 &
1(
#726
0(
#731
b0000000000001010 -
b0000000000001010 %
b0000000000001011 &
1(
#736
0(
#741
b0000000000001001 -
b0000000000001001 %
b0000000000001010 &
1(
#746
0(
#751
b0000000000001000 -
b0000000000001000 %
b0000000000001001 &
1(
#756
0(
#761
b0000000000000111 -
b0000000000000111 %
b0000000000001000 &
1(
#766
0(
#771
b0000000000000110 -
b0000000000000110 %
b0000000000000111 &
1(
#776
0(
#781
b0000000000000101 -
b0000000000000101 %
b0000000000000110 &
1(
#786
0(
#791
b0000000000000100 -
b0000000000000100 %
b0000000000000101 &
1(
#796
0(
#801
b0000000000000011 -
b0000000000000011 %
b0000000000000100 &
1(
#806
0(
#811
b0000000000000010 -
b0000000000000010 %
b0000000000000011 &
1(
#816
0(
#821
b0000000000000001 -
b0000000000000001 %
b0000000000000010 &
1(
#826
0(
#831
b0000000000000000 -
b0000000000000000 %
b0000000000000001 &
1(
#836
0(
#841
b0000000000000000 &
1#
1$
1(
#846
b0000000000100100 -
1.
b0000000000100100 '
0(
#851
b0000000000100011 %
b0000000000100100 &
0#
0$
1(
#856
b0000000000100011 -
0.
0(
#861
b0000000000100010 -
b0000000000100010 %
b0000000000100011 &
1(
#866
0(
#871
b0000000000100001 -
b0000000000100001 %
b0000000000100010 &
1(
#876
0(
#881
b0000000000100000 -
b0000000000100000 %
b0000000000100001 &
1(
#886
0(
#891
b0000000000011111 -
b0000000000011111 %
b0000000000100000 &
1(
#896
0(
#901
b0000000000011110 -
b0000000000011110 %
b0000000000011111 &
1(
#906
0(
#911
b0000000000011101 -
b0000000000011101 %
b0000000000011110 &
1(
#916
0(
#921
b0000000000011100 -
b0000000000011100 %
b0000000000011101 &
1(
#926
0(
#931
b0000000000011011 -
b0000000000011011 %
b0000000000011100 &
1(
#936
0(
#941
b0000000000011010 -
b0000000000011010 %
b0000000000011011 &
1(
#946
0(
#951
b0000000000011001 -
b0000000000011001 %
b0000000000011010 &
1(
#956
0(
#961
b0000000000011000 -
b0000000000011000 %
b0000000000011001 &
1(
#966
0(
#971
b0000000000010111 -
b0000000000010111 %
b0000000000011000 &
1(
#976
0(
#981
b0000000000010110 -
b0000000000010110 %
b0000000000010111 &
1(
#986
0(
#991
b0000000000010101 -
b0000000000010101 %
b0000000000010110 &
1(
#996
0(
#1001
b0000000000010100 -
b0000000000010100 %
b0000000000010101 &
1(
#1006
0(
#1011
b0000000000010011 -
b0000000000010011 %
b0000000000010100 &
1(
#1016
0(
#1021
b0000000000010010 -
b0000000000010010 %
b0000000000010011 &
1(
#1026
0(
#1031
b0000000000010001 -
b0000000000010001 %
b0000000000010010 &
1(
#1036
0(
#1041
b0000000000010000 -
b0000000000010000 %
b0000000000010001 &
1(
#1046
0(
#1051
b0000000000001111 -
b0000000000001111 %
b0000000000010000 &
1(
#1056
0(
#1061
b0000000000001110 -
b0000000000001110 %
b0000000000001111 &
1(
#1066
0(
#1071
b0000000000001101 -
b0000000000001101 %
b0000000000001110 &
1(
#1076
0(
#1081
b0000000000001100 -
b0000000000001100 %
b0000000000001101 &
1(
#1086
0(
#1091
b0000000000001011 -
b0000000000001011 %
b0000000000001100 &
1(
#1096
0(
#1101
b0000000000001010 -
b0000000000001010 %
b0000000000001011 &
1(
#1106
0(
#1111
b0000000000001001 -
b0000000000001001 %
b0000000000001010 &
1(
#1116
0(
#1121
b0000000000001000 -
b0000000000001000 %
b0000000000001001 &
1(
#1126
0(
#1131
b0000000000000111 -
b0000000000000111 %
b0000000000001000 &
1(
#1136
0(
#1141
b0000000000000110 -
b0000000000000110 %
b0000000000000111 &
1(
#1146
0(
#1151
b0000000000000101 -
b0000000000000101 %
b0000000000000110 &
1(
#1156
0(
#1161
b0000000000000100 -
b0000000000000100 %
b0000000000000101 &
1(
#1166
0(
#1171
b0000000000000011 -
b0000000000000011 %
b0000000000000100 &
1(
#1176
0(
#1181
b0000000000000010 -
b0000000000000010 %
b0000000000000011 &
1(
#1186
0(
#1191
b0000000000000001 -
b0000000000000001 %
b0000000000000010 &
1(
#1196
0(
#1201
b0000000000000000 -
b0000000000000000 %
b0000000000000001 &
1(
#1206
0(
#1211
b0000000000000000 &
1#
1$
1(
#1216
b0000000000000001 -
b0000000000000100 "
1.
b0000000000000001 '
0(
b0000000000000100 ,
#1221
b0000000000000100 !
b0000000000000001 %
b0000000000000001 &
b0000000000000011 *
0$
1(
b0000000000000100 )
#1226
b0000000000000011 "
0.
0(
#1231
b0000000000000011 !
b0000000000000010 "
b0000000000000010 *
1(
b0000000000000011 )
#1236
0(
#1241
b0000000000000010 !
b0000000000000001 "
b0000000000000001 *
1(
b0000000000000010 )
#1246
0(
#1251
b0000000000000001 !
b0000000000000000 -
b0000000000000000 %
0#
1(
b0000000000000001 )
#1256
0(
#1261
b0000000000000000 &
1#
1$
1(
#1266
b0000000000001000 -
b0000000000000100 "
1.
b0000000000001000 '
0(
#1271
b0000000000000100 !
b0000000000000100 %
b0000000000001000 &
0#
b0000000000000100 *
0$
1(
b0000000000000100 )
#1276
b0000000000000100 -
0.
0(
#1281
b0000000000000000 -
b0000000000000000 %
b0000000000000100 &
1(
#1286
0(
#1291
b0000000000000000 &
1#
1$
1(
#1296
b0000000000001111 -
1.
b0000000000001111 '
0(
#1301
b0000000000001011 %
b0000000000001111 &
0#
0$
1(
#1306
b0000000000001011 -
0.
0(
#1311
b0000000000000111 -
b0000000000000111 %
b0000000000001011 &
1(
#1316
0(
#1321
b0000000000000011 -
b0000000000000011 %
b0000000000000111 &
1(
#1326
0(
#1331
b0000000000000001 "
b0000000000000011 &
1#
b0000000000000001 *
1(
#1336
0(
#1341
b0000000000000001 !
b0000000000000010 -
b0000000000000010 %
0#
1(
b0000000000000001 )
#1346
0(
#1351
b0000000000000001 -
b0000000000000001 %
b0000000000000010 &
1(
#1356
0(
#1361
b0000000000000000 -
b0000000000000000 %
b0000000000000001 &
1(
#1366
0(
#1371
b0000000000000000 &
1#
1$
1(
#1376
b0000000000010110 -
b0000000000000100 "
1.
b0000000000010110 '
0(
#1381
b0000000000000100 !
b0000000000010010 %
b0000000000010110 &
0#
b0000000000000100 *
0$
1(
b0000000000000100 )
#1386
b0000000000010010 -
0.
0(
#1391
b0000000000001110 -
b0000000000001110 %
b0000000000010010 &
1(
#1396
0(
#1401
b0000000000001010 -
b0000000000001010 %
b0000000000001110 &
1(
#1406
0(
#1411
b0000000000000110 -
b0000000000000110 %
b0000000000001010 &
1(
#1416
0(
#1421
b0000000000000010 -
b0000000000000010 %
b0000000000000110 &
1(
#1426
0(
#1431
b0000000000000010 "
b0000000000000010 &
1#
b0000000000000010 *
1(
#1436
0(
#1441
b0000000000000010 !
b0000000000000000 -
b0000000000000000 %
0#
1(
b0000000000000010 )
#1446
0(
#1451
b0000000000000000 &
1#
1$
1(
#1456
b0000000000011101 -
b0000000000000100 "
1.
b0000000000011101 '
0(
#1461
b0000000000000100 !
b0000000000011001 %
b0000000000011101 &
0#
b0000000000000100 *
0$
1(
b0000000000000100 )
#1466
b0000000000011001 -
0.
0(
#1471
b0000000000010101 -
b0000000000010101 %
b0000000000011001 &
1(
#1476
0(
#1481
b0000000000010001 -
b0000000000010001 %
b0000000000010101 &
1(
#1486
0(
#1491
b0000000000001101 -
b0000000000001101 %
b0000000000010001 &
1(
#1496
0(
#1501
b0000000000001001 -
b0000000000001001 %
b0000000000001101 &
1(
#1506
0(
#1511
b0000000000000101 -
b0000000000000101 %
b0000000000001001 &
1(
#1516
0(
#1521
b0000000000000001 -
b0000000000000001 %
b0000000000000101 &
1(
#1526
0(
#1531
b0000000000000011 "
b0000000000000001 &
1#
b0000000000000011 *
1(
#1536
0(
#1541
b0000000000000011 !
b0000000000000010 "
b0000000000000010 *
1(
b0000000000000011 )
#1546
0(
#1551
b0000000000000010 !
b0000000000000001 "
b0000000000000001 *
1(
b0000000000000010 )
#1556
0(
#1561
b0000000000000001 !
b0000000000000000 -
b0000000000000000 %
0#
1(
b0000000000000001 )
#1566
0(
#1571
b0000000000000000 &
1#
1$
1(
#1576
b0000000000100100 -
b0000000000000100 "
1.
b0000000000100100 '
0(
#1581
b0000000000000100 !
b0000000000100000 %
b0000000000100100 &
0#
b0000000000000100 *
0$
1(
b0000000000000100 )
#1586
b0000000000100000 -
0.
0(
#1591
b0000000000011100 -
b0000000000011100 %
b0000000000100000 &
1(
#1596
0(
#1601
b0000000000011000 -
b0000000000011000 %
b0000000000011100 &
1(
#1606
0(
#1611
b0000000000010100 -
b0000000000010100 %
b0000000000011000 &
1(
#1616
0(
#1621
b0000000000010000 -
b0000000000010000 %
b0000000000010100 &
1(
#1626
0(
#1631
b0000000000001100 -
b0000000000001100 %
b0000000000010000 &
1(
#1636
0(
#1641
b0000000000001000 -
b0000000000001000 %
b0000000000001100 &
1(
#1646
0(
#1651
b0000000000000100 -
b0000000000000100 %
b0000000000001000 &
1(
#1656
0(
#1661
b0000000000000000 -
b0000000000000000 %
b0000000000000100 &
1(
#1666
0(
#1671
b0000000000000000 &
1#
1$
1(
#1676
b0000000000000001 -
b0000000000000111 "
1.
b0000000000000001 '
0(
b0000000000000111 ,
#1681
b0000000000000111 !
b0000000000000001 %
b0000000000000001 &
b0000000000000110 *
0$
1(
b0000000000000111 )
#1686
b0000000000000110 "
0.
0(
#1691
b0000000000000110 !
b0000000000000101 "
b0000000000000101 *
1(
b0000000000000110 )
#1696
0(
#1701
b0000000000000101 !
b0000000000000100 "
b0000000000000100 *
1(
b0000000000000101 )
#1706
0(
#1711
b0000000000000100 !
b0000000000000011 "
b0000000000000011 *
1(
b0000000000000100 )
#1716
0(
#1721
b0000000000000011 !
b0000000000000010 "
b0000000000000010 *
1(
b0000000000000011 )
#1726
0(
#1731
b0000000000000010 !
b0000000000000001 "
b0000000000000001 *
1(
b0000000000000010 )
#1736
0(
#1741
b0000000000000001 !
b0000000000000000 -
b0000000000000000 %
0#
1(
b0000000000000001 )
#1746
0(
#1751
b0000000000000000 &
1#
1$
1(
#1756
b0000000000001000 -
b0000000000000111 "
1.
b0000000000001000 '
0(
#1761
b0000000000000111 !
b0000000000000001 %
b0000000000001000 &
0#
b0000000000000111 *
0$
1(
b0000000000000111 )
#1766
b0000000000000001 -
0.
0(
#1771
b0000000000000110 "
b0000000000000001 &
1#
b0000000000000110 *
1(
#1776
0(
#1781
b0000000000000110 !
b0000000000000101 "
b0000000000000101 *
1(
b0000000000000110 )
#1786
0(
#1791
b0000000000000101 !
b0000000000000100 "
b0000000000000100 *
1(
b0000000000000101 )
#1796
0(
#1801
b0000000000000100 !
b0000000000000011 "
b0000000000000011 *
1(
b0000000000000100 )
#1806
0(
#1811
b0000000000000011 !
b0000000000000010 "
b0000000000000010 *
1(
b0000000000000011 )
#1816
0(
#1821
b0000000000000010 !
b0000000000000001 "
b0000000000000001 *
1(
b0000000000000010 )
#1826
0(
#1831
b0000000000000001 !
b0000000000000000 -
b0000000000000000 %
0#
1(
b0000000000000001 )
#1836
0(
#1841
b0000000000000000 &
1#
1$
1(
#1846
b0000000000001111 -
b0000000000000111 "
1.
b0000000000001111 '
0(
#1851
b0000000000000111 !
b0000000000001000 %
b0000000000001111 &
0#
b0000000000000111 *
0$
1(
b0000000000000111 )
#1856
b0000000000001000 -
0.
0(
#1861
b0000000000000001 -
b0000000000000001 %
b0000000000001000 &
1(
#1866
0(
#1871
b0000000000000110 "
b0000000000000001 &
1#
b0000000000000110 *
1(
#1876
0(
#1881
b0000000000000110 !
b0000000000000101 "
b0000000000000101 *
1(
b0000000000000110 )
#1886
0(
#1891
b0000000000000101 !
b0000000000000100 "
b0000000000000100 *
1(
b0000000000000101 )
#1896
0(
#1901
b0000000000000100 !
b0000000000000011 "
b0000000000000011 *
1(
b0000000000000100 )
#1906
0(
#1911
b0000000000000011 !
b0000000000000010 "
b0000000000000010 *
1(
b0000000000000011 )
#1916
0(
#1921
b0000000000000010 !
b0000000000000001 "
b0000000000000001 *
1(
b0000000000000010 )
#1926
0(
#1931
b0000000000000001 !
b0000000000000000 -
b0000000000000000 %
0#
1(
b0000000000000001 )
#1936
0(
#1941
b0000000000000000 &
1#
1$
1(
#1946
b0000000000010110 -
b0000000000000111 "
1.
b0000000000010110 '
0(
#1951
b0000000000000111 !
b0000000000001111 %
b0000000000010110 &
0#
b0000000000000111 *
0$
1(
b0000000000000111 )
#1956
b0000000000001111 -
0.
0(
#1961
b0000000000001000 -
b0000000000001000 %
b0000000000001111 &
1(
#1966
0(
#1971
b0000000000000001 -
b0000000000000001 %
b0000000000001000 &
1(
#1976
0(
#1981
b0000000000000110 "
b0000000000000001 &
1#
b0000000000000110 *
1(
#1986
0(
#1991
b0000000000000110 !
b0000000000000101 "
b0000000000000101 *
1(
b0000000000000110 )
#1996
0(
#2001
b0000000000000101 !
b0000000000000100 "
b0000000000000100 *
1(
b0000000000000101 )
#2006
0(
#2011
b0000000000000100 !
b0000000000000011 "
b0000000000000011 *
1(
b0000000000000100 )
#2016
0(
#2021
b0000000000000011 !
b0000000000000010 "
b0000000000000010 *
1(
b0000000000000011 )
#2026
0(
#2031
b0000000000000010 !
b0000000000000001 "
b0000000000000001 *
1(
b0000000000000010 )
#2036
0(
#2041
b0000000000000001 !
b0000000000000000 -
b0000000000000000 %
0#
1(
b0000000000000001 )
#2046
0(
#2051
b0000000000000000 &
1#
1$
1(
#2056
b0000000000011101 -
b0000000000000111 "
1.
b0000000000011101 '
0(
#2061
b0000000000000111 !
b0000000000010110 %
b0000000000011101 &
0#
b0000000000000111 *
0$
1(
b0000000000000111 )
#2066
b0000000000010110 -
0.
0(
#2071
b0000000000001111 -
b0000000000001111 %
b0000000000010110 &
1(
#2076
0(
#2081
b0000000000001000 -
b0000000000001000 %
b0000000000001111 &
1(
#2086
0(
#2091
b0000000000000001 -
b0000000000000001 %
b0000000000001000 &
1(
#2096
0(
#2101
b0000000000000110 "
b0000000000000001 &
1#
b0000000000000110 *
1(
#2106
0(
#2111
b0000000000000110 !
b0000000000000101 "
b0000000000000101 *
1(
b0000000000000110 )
#2116
0(
#2121
b0000000000000101 !
b0000000000000100 "
b0000000000000100 *
1(
b0000000000000101 )
#2126
0(
#2131
b0000000000000100 !
b0000000000000011 "
b0000000000000011 *
1(
b0000000000000100 )
#2136
0(
#2141
b0000000000000011 !
b0000000000000010 "
b0000000000000010 *
1(
b0000000000000011 )
#2146
0(
#2151
b0000000000000010 !
b0000000000000001 "
b0000000000000001 *
1(
b0000000000000010 )
#2156
0(
#2161
b0000000000000001 !
b0000000000000000 -
b0000000000000000 %
0#
1(
b0000000000000001 )
#2166
0(
#2171
b0000000000000000 &
1#
1$
1(
#2176
b0000000000100100 -
b0000000000000111 "
1.
b0000000000100100 '
0(
#2181
b0000000000000111 !
b0000000000011101 %
b0000000000100100 &
0#
b0000000000000111 *
0$
1(
b0000000000000111 )
#2186
b0000000000011101 -
0.
0(
#2191
b0000000000010110 -
b0000000000010110 %
b0000000000011101 &
1(
#2196
0(
#2201
b0000000000001111 -
b0000000000001111 %
b0000000000010110 &
1(
#2206
0(
#2211
b0000000000001000 -
b0000000000001000 %
b0000000000001111 &
1(
#2216
0(
#2221
b0000000000000001 -
b0000000000000001 %
b0000000000001000 &
1(
#2226
0(
#2231
b0000000000000110 "
b0000000000000001 &
1#
b0000000000000110 *
1(
#2236
0(
#2241
b0000000000000110 !
b0000000000000101 "
b0000000000000101 *
1(
b0000000000000110 )
#2246
0(
#2251
b0000000000000101 !
b0000000000000100 "
b0000000000000100 *
1(
b0000000000000101 )
#2256
0(
#2261
b0000000000000100 !
b0000000000000011 "
b0000000000000011 *
1(
b0000000000000100 )
#2266
0(
#2271
b0000000000000011 !
b0000000000000010 "
b0000000000000010 *
1(
b0000000000000011 )
#2276
0(
#2281
b0000000000000010 !
b0000000000000001 "
b0000000000000001 *
1(
b0000000000000010 )
#2286
0(
#2291
b0000000000000001 !
b0000000000000000 -
b0000000000000000 %
0#
1(
b0000000000000001 )
#2296
0(
#2301
b0000000000000000 &
1#
1$
1(
#2306
b0000000000000001 -
b0000000000001010 "
1.
b0000000000000001 '
0(
b0000000000001010 ,
#2311
b0000000000001010 !
b0000000000000001 %
b0000000000000001 &
b0000000000001001 *
0$
1(
b0000000000001010 )
#2316
b0000000000001001 "
0.
0(
#2321
b0000000000001001 !
b0000000000001000 "
b0000000000001000 *
1(
b0000000000001001 )
#2326
0(
#2331
b0000000000001000 !
b0000000000000111 "
b0000000000000111 *
1(
b0000000000001000 )
#2336
0(
#2341
b0000000000000111 !
b0000000000000110 "
b0000000000000110 *
1(
b0000000000000111 )
#2346
0(
#2351
b0000000000000110 !
b0000000000000101 "
b0000000000000101 *
1(
b0000000000000110 )
#2356
0(
#2361
b0000000000000101 !
b0000000000000100 "
b0000000000000100 *
1(
b0000000000000101 )
#2366
0(
#2371
b0000000000000100 !
b0000000000000011 "
b0000000000000011 *
1(
b0000000000000100 )
#2376
0(
#2381
b0000000000000011 !
b0000000000000010 "
b0000000000000010 *
1(
b0000000000000011 )
#2386
0(
#2391
b0000000000000010 !
b0000000000000001 "
b0000000000000001 *
1(
b0000000000000010 )
#2396
0(
#2401
b0000000000000001 !
b0000000000000000 -
b0000000000000000 %
0#
1(
b0000000000000001 )
#2406
0(
#2411
b0000000000000000 &
1#
1$
1(
#2416
b0000000000001000 -
b0000000000001010 "
1.
b0000000000001000 '
0(
#2421
b0000000000001010 !
b0000000000001000 %
b0000000000001000 &
b0000000000000010 *
0$
1(
b0000000000001010 )
#2426
b0000000000000010 "
0.
0(
#2431
b0000000000000010 !
b0000000000000110 -
b0000000000000110 %
0#
1(
b0000000000000010 )
#2436
0(
#2441
b0000000000000100 -
b0000000000000100 %
b0000000000000110 &
1(
#2446
0(
#2451
b0000000000000010 -
b0000000000000010 %
b0000000000000100 &
1(
#2456
0(
#2461
b0000000000000000 -
b0000000000000000 %
b0000000000000010 &
1(
#2466
0(
#2471
b0000000000000000 &
1#
1$
1(
#2476
b0000000000001111 -
b0000000000001010 "
1.
b0000000000001111 '
0(
#2481
b0000000000001010 !
b0000000000000101 %
b0000000000001111 &
0#
b0000000000001010 *
0$
1(
b0000000000001010 )
#2486
b0000000000000101 -
0.
0(
#2491
b0000000000000101 "
b0000000000000101 &
1#
b0000000000000101 *
1(
#2496
0(
#2501
b0000000000000101 !
b0000000000000000 -
b0000000000000000 %
0#
1(
b0000000000000101 )
#2506
0(
#2511
b0000000000000000 &
1#
1$
1(
#2516
b0000000000010110 -
b0000000000001010 "
1.
b0000000000010110 '
0(
#2521
b0000000000001010 !
b0000000000001100 %
b0000000000010110 &
0#
b0000000000001010 *
0$
1(
b0000000000001010 )
#2526
b0000000000001100 -
0.
0(
#2531
b0000000000000010 -
b0000000000000010 %
b0000000000001100 &
1(
#2536
0(
#2541
b0000000000001000 "
b0000000000000010 &
1#
b0000000000001000 *
1(
#2546
0(
#2551
b0000000000001000 !
b0000000000000110 "
b0000000000000110 *
1(
b0000000000001000 )
#2556
0(
#2561
b0000000000000110 !
b0000000000000100 "
b0000000000000100 *
1(
b0000000000000110 )
#2566
0(
#2571
b0000000000000100 !
b0000000000000010 "
b0000000000000010 *
1(
b0000000000000100 )
#2576
0(
#2581
b0000000000000010 !
b0000000000000000 -
b0000000000000000 %
0#
1(
b0000000000000010 )
#2586
0(
#2591
b0000000000000000 &
1#
1$
1(
#2596
b0000000000011101 -
b0000000000001010 "
1.
b0000000000011101 '
0(
#2601
b0000000000001010 !
b0000000000010011 %
b0000000000011101 &
0#
b0000000000001010 *
0$
1(
b0000000000001010 )
#2606
b0000000000010011 -
0.
0(
#2611
b0000000000001001 -
b0000000000001001 %
b0000000000010011 &
1(
#2616
0(
#2621
b0000000000000001 "
b0000000000001001 &
1#
b0000000000000001 *
1(
#2626
0(
#2631
b0000000000000001 !
b0000000000001000 -
b0000000000001000 %
0#
1(
b0000000000000001 )
#2636
0(
#2641
b0000000000000111 -
b0000000000000111 %
b0000000000001000 &
1(
#2646
0(
#2651
b0000000000000110 -
b0000000000000110 %
b0000000000000111 &
1(
#2656
0(
#2661
b0000000000000101 -
b0000000000000101 %
b0000000000000110 &
1(
#2666
0(
#2671
b0000000000000100 -
b0000000000000100 %
b0000000000000101 &
1(
#2676
0(
#2681
b0000000000000011 -
b0000000000000011 %
b0000000000000100 &
1(
#2686
0(
#2691
b0000000000000010 -
b0000000000000010 %
b0000000000000011 &
1(
#2696
0(
#2701
b0000000000000001 -
b0000000000000001 %
b0000000000000010 &
1(
#2706
0(
#2711
b0000000000000000 -
b0000000000000000 %
b0000000000000001 &
1(
#2716
0(
#2721
b0000000000000000 &
1#
1$
1(
#2726
b0000000000100100 -
b0000000000001010 "
1.
b0000000000100100 '
0(
#2731
b0000000000001010 !
b0000000000011010 %
b0000000000100100 &
0#
b0000000000001010 *
0$
1(
b0000000000001010 )
#2736
b0000000000011010 -
0.
0(
#2741
b0000000000010000 -
b0000000000010000 %
b0000000000011010 &
1(
#2746
0(
#2751
b0000000000000110 -
b0000000000000110 %
b0000000000010000 &
1(
#2756
0(
#2761
b0000000000000100 "
b0000000000000110 &
1#
b0000000000000100 *
1(
#2766
0(
#2771
b0000000000000100 !
b0000000000000010 -
b0000000000000010 %
0#
1(
b0000000000000100 )
#2776
0(
#2781
b0000000000000010 "
b0000000000000010 &
1#
b0000000000000010 *
1(
#2786
0(
#2791
b0000000000000010 !
b0000000000000000 -
b0000000000000000 %
0#
1(
b0000000000000010 )
#2796
0(
#2801
b0000000000000000 &
1#
1$
1(
#2806
b0000000000000001 -
b0000000000001101 "
1.
b0000000000000001 '
0(
b0000000000001101 ,
#2811
b0000000000001101 !
b0000000000000001 %
b0000000000000001 &
b0000000000001100 *
0$
1(
b0000000000001101 )
#2816
b0000000000001100 "
0.
0(
#2821
b0000000000001100 !
b0000000000001011 "
b0000000000001011 *
1(
b0000000000001100 )
#2826
0(
#2831
b0000000000001011 !
b0000000000001010 "
b0000000000001010 *
1(
b0000000000001011 )
#2836
0(
#2841
b0000000000001010 !
b0000000000001001 "
b0000000000001001 *
1(
b0000000000001010 )
#2846
0(
#2851
b0000000000001001 !
b0000000000001000 "
b0000000000001000 *
1(
b0000000000001001 )
#2856
0(
#2861
b0000000000001000 !
b0000000000000111 "
b0000000000000111 *
1(
b0000000000001000 )
#2866
0(
#2871
b0000000000000111 !
b0000000000000110 "
b0000000000000110 *
1(
b0000000000000111 )
#2876
0(
#2881
b0000000000000110 !
b0000000000000101 "
b0000000000000101 *
1(
b0000000000000110 )
#2886
0(
#2891
b0000000000000101 !
b0000000000000100 "
b0000000000000100 *
1(
b0000000000000101 )
#2896
0(
#2901
b0000000000000100 !
b0000000000000011 "
b0000000000000011 *
1(
b0000000000000100 )
#2906
0(
